^C:\HALACI\TESTPROJECTS\CALIBRATION\CBDETECT\LIBCBDETECT\LIBCBDETECT-MASTER\SRC\LIBCBDETECT\BOARDS_FROM_CORNERS.CC|C:\HALACI\TESTPROJECTS\CALIBRATION\CBDETECT\LIBCBDETECT\LIBCBDETECT-MASTER\SRC\LIBCBDETECT\BOARD_ENERGY.CC|C:\HALACI\TESTPROJECTS\CALIBRATION\CBDETECT\LIBCBDETECT\LIBCBDETECT-MASTER\SRC\LIBCBDETECT\CREATE_CORRELATION_PATCH.CC|C:\HALACI\TESTPROJECTS\CALIBRATION\CBDETECT\LIBCBDETECT\LIBCBDETECT-MASTER\SRC\LIBCBDETECT\FILTER_BOARD.CC|C:\HALACI\TESTPROJECTS\CALIBRATION\CBDETECT\LIBCBDETECT\LIBCBDETECT-MASTER\SRC\LIBCBDETECT\FILTER_CORNERS.CC|C:\HALACI\TESTPROJECTS\CALIBRATION\CBDETECT\LIBCBDETECT\LIBCBDETECT-MASTER\SRC\LIBCBDETECT\FIND_CORNERS.CC|C:\HALACI\TESTPROJECTS\CALIBRATION\CBDETECT\LIBCBDETECT\LIBCBDETECT-MASTER\SRC\LIBCBDETECT\FIND_MODES_MEANSHIFT.CC|C:\HALACI\TESTPROJECTS\CALIBRATION\CBDETECT\LIBCBDETECT\LIBCBDETECT-MASTER\SRC\LIBCBDETECT\GET_IMAGE_PATCH.CC|C:\HALACI\TESTPROJECTS\CALIBRATION\CBDETECT\LIBCBDETECT\LIBCBDETECT-MASTER\SRC\LIBCBDETECT\GET_INIT_LOCATION.CC|C:\HALACI\TESTPROJECTS\CALIBRATION\CBDETECT\LIBCBDETECT\LIBCBDETECT-MASTER\SRC\LIBCBDETECT\GROW_BOARD.CC|C:\HALACI\TESTPROJECTS\CALIBRATION\CBDETECT\LIBCBDETECT\LIBCBDETECT-MASTER\SRC\LIBCBDETECT\IMAGE_NORMALIZATION_AND_GRADIENTS.CC|C:\HALACI\TESTPROJECTS\CALIBRATION\CBDETECT\LIBCBDETECT\LIBCBDETECT-MASTER\SRC\LIBCBDETECT\INIT_BOARD.CC|C:\HALACI\TESTPROJECTS\CALIBRATION\CBDETECT\LIBCBDETECT\LIBCBDETECT-MASTER\SRC\LIBCBDETECT\NON_MAXIMUM_SUPPRESSION.CC|C:\HALACI\TESTPROJECTS\CALIBRATION\CBDETECT\LIBCBDETECT\LIBCBDETECT-MASTER\SRC\LIBCBDETECT\PLOT_BOARDS.CC|C:\HALACI\TESTPROJECTS\CALIBRATION\CBDETECT\LIBCBDETECT\LIBCBDETECT-MASTER\SRC\LIBCBDETECT\PLOT_CORNERS.CC|C:\HALACI\TESTPROJECTS\CALIBRATION\CBDETECT\LIBCBDETECT\LIBCBDETECT-MASTER\SRC\LIBCBDETECT\POLYNOMIAL_FIT.CC|C:\HALACI\TESTPROJECTS\CALIBRATION\CBDETECT\LIBCBDETECT\LIBCBDETECT-MASTER\SRC\LIBCBDETECT\REFINE_CORNERS.CC|C:\HALACI\TESTPROJECTS\CALIBRATION\CBDETECT\LIBCBDETECT\LIBCBDETECT-MASTER\SRC\LIBCBDETECT\SCORE_CORNERS.CC|C:\HALACI\TESTPROJECTS\CALIBRATION\CBDETECT\LIBCBDETECT\LIBCBDETECT-MASTER\SRC\LIBCBDETECT\WEIGHT_MASK.CC|C:\HALACI\TESTPROJECTS\CALIBRATION\CBDETECT\LIBCBDETECT\LIBCBDETECT\MAIN.CPP
C:\HALACI\TESTPROJECTS\CALIBRATION\CBDETECT\LIBCBDETECT\LIBCBDETECT\X64\DEBUG\VC141.PDB
C:\HALACI\TESTPROJECTS\CALIBRATION\CBDETECT\LIBCBDETECT\LIBCBDETECT\X64\DEBUG\VC141.IDB
C:\HALACI\TESTPROJECTS\CALIBRATION\CBDETECT\LIBCBDETECT\LIBCBDETECT\X64\DEBUG\MAIN.OBJ
^C:\HALACI\TESTPROJECTS\CALIBRATION\CBDETECT\LIBCBDETECT\LIBCBDETECT-MASTER\SRC\LIBCBDETECT\BOARDS_FROM_CORNERS.CC|C:\HALACI\TESTPROJECTS\CALIBRATION\CBDETECT\LIBCBDETECT\LIBCBDETECT-MASTER\SRC\LIBCBDETECT\BOARD_ENERGY.CC|C:\HALACI\TESTPROJECTS\CALIBRATION\CBDETECT\LIBCBDETECT\LIBCBDETECT-MASTER\SRC\LIBCBDETECT\CREATE_CORRELATION_PATCH.CC|C:\HALACI\TESTPROJECTS\CALIBRATION\CBDETECT\LIBCBDETECT\LIBCBDETECT-MASTER\SRC\LIBCBDETECT\FILTER_BOARD.CC|C:\HALACI\TESTPROJECTS\CALIBRATION\CBDETECT\LIBCBDETECT\LIBCBDETECT-MASTER\SRC\LIBCBDETECT\FILTER_CORNERS.CC|C:\HALACI\TESTPROJECTS\CALIBRATION\CBDETECT\LIBCBDETECT\LIBCBDETECT-MASTER\SRC\LIBCBDETECT\FIND_CORNERS.CC|C:\HALACI\TESTPROJECTS\CALIBRATION\CBDETECT\LIBCBDETECT\LIBCBDETECT-MASTER\SRC\LIBCBDETECT\FIND_MODES_MEANSHIFT.CC|C:\HALACI\TESTPROJECTS\CALIBRATION\CBDETECT\LIBCBDETECT\LIBCBDETECT-MASTER\SRC\LIBCBDETECT\GET_IMAGE_PATCH.CC|C:\HALACI\TESTPROJECTS\CALIBRATION\CBDETECT\LIBCBDETECT\LIBCBDETECT-MASTER\SRC\LIBCBDETECT\GET_INIT_LOCATION.CC|C:\HALACI\TESTPROJECTS\CALIBRATION\CBDETECT\LIBCBDETECT\LIBCBDETECT-MASTER\SRC\LIBCBDETECT\GROW_BOARD.CC|C:\HALACI\TESTPROJECTS\CALIBRATION\CBDETECT\LIBCBDETECT\LIBCBDETECT-MASTER\SRC\LIBCBDETECT\IMAGE_NORMALIZATION_AND_GRADIENTS.CC|C:\HALACI\TESTPROJECTS\CALIBRATION\CBDETECT\LIBCBDETECT\LIBCBDETECT-MASTER\SRC\LIBCBDETECT\INIT_BOARD.CC|C:\HALACI\TESTPROJECTS\CALIBRATION\CBDETECT\LIBCBDETECT\LIBCBDETECT-MASTER\SRC\LIBCBDETECT\NON_MAXIMUM_SUPPRESSION.CC|C:\HALACI\TESTPROJECTS\CALIBRATION\CBDETECT\LIBCBDETECT\LIBCBDETECT-MASTER\SRC\LIBCBDETECT\PLOT_BOARDS.CC|C:\HALACI\TESTPROJECTS\CALIBRATION\CBDETECT\LIBCBDETECT\LIBCBDETECT-MASTER\SRC\LIBCBDETECT\PLOT_CORNERS.CC|C:\HALACI\TESTPROJECTS\CALIBRATION\CBDETECT\LIBCBDETECT\LIBCBDETECT-MASTER\SRC\LIBCBDETECT\POLYNOMIAL_FIT.CC|C:\HALACI\TESTPROJECTS\CALIBRATION\CBDETECT\LIBCBDETECT\LIBCBDETECT-MASTER\SRC\LIBCBDETECT\REFINE_CORNERS.CC|C:\HALACI\TESTPROJECTS\CALIBRATION\CBDETECT\LIBCBDETECT\LIBCBDETECT-MASTER\SRC\LIBCBDETECT\SCORE_CORNERS.CC|C:\HALACI\TESTPROJECTS\CALIBRATION\CBDETECT\LIBCBDETECT\LIBCBDETECT-MASTER\SRC\LIBCBDETECT\WEIGHT_MASK.CC
C:\HALACI\TESTPROJECTS\CALIBRATION\CBDETECT\LIBCBDETECT\LIBCBDETECT\X64\DEBUG\VC141.PDB
C:\HALACI\TESTPROJECTS\CALIBRATION\CBDETECT\LIBCBDETECT\LIBCBDETECT\X64\DEBUG\VC141.IDB
C:\HALACI\TESTPROJECTS\CALIBRATION\CBDETECT\LIBCBDETECT\LIBCBDETECT\X64\DEBUG\WEIGHT_MASK.OBJ
C:\HALACI\TESTPROJECTS\CALIBRATION\CBDETECT\LIBCBDETECT\LIBCBDETECT\X64\DEBUG\SCORE_CORNERS.OBJ
C:\HALACI\TESTPROJECTS\CALIBRATION\CBDETECT\LIBCBDETECT\LIBCBDETECT\X64\DEBUG\REFINE_CORNERS.OBJ
C:\HALACI\TESTPROJECTS\CALIBRATION\CBDETECT\LIBCBDETECT\LIBCBDETECT\X64\DEBUG\POLYNOMIAL_FIT.OBJ
C:\HALACI\TESTPROJECTS\CALIBRATION\CBDETECT\LIBCBDETECT\LIBCBDETECT\X64\DEBUG\PLOT_CORNERS.OBJ
C:\HALACI\TESTPROJECTS\CALIBRATION\CBDETECT\LIBCBDETECT\LIBCBDETECT\X64\DEBUG\PLOT_BOARDS.OBJ
C:\HALACI\TESTPROJECTS\CALIBRATION\CBDETECT\LIBCBDETECT\LIBCBDETECT\X64\DEBUG\NON_MAXIMUM_SUPPRESSION.OBJ
C:\HALACI\TESTPROJECTS\CALIBRATION\CBDETECT\LIBCBDETECT\LIBCBDETECT\X64\DEBUG\INIT_BOARD.OBJ
C:\HALACI\TESTPROJECTS\CALIBRATION\CBDETECT\LIBCBDETECT\LIBCBDETECT\X64\DEBUG\IMAGE_NORMALIZATION_AND_GRADIENTS.OBJ
C:\HALACI\TESTPROJECTS\CALIBRATION\CBDETECT\LIBCBDETECT\LIBCBDETECT\X64\DEBUG\GROW_BOARD.OBJ
C:\HALACI\TESTPROJECTS\CALIBRATION\CBDETECT\LIBCBDETECT\LIBCBDETECT\X64\DEBUG\GET_INIT_LOCATION.OBJ
C:\HALACI\TESTPROJECTS\CALIBRATION\CBDETECT\LIBCBDETECT\LIBCBDETECT\X64\DEBUG\GET_IMAGE_PATCH.OBJ
C:\HALACI\TESTPROJECTS\CALIBRATION\CBDETECT\LIBCBDETECT\LIBCBDETECT\X64\DEBUG\FIND_MODES_MEANSHIFT.OBJ
C:\HALACI\TESTPROJECTS\CALIBRATION\CBDETECT\LIBCBDETECT\LIBCBDETECT\X64\DEBUG\FIND_CORNERS.OBJ
C:\HALACI\TESTPROJECTS\CALIBRATION\CBDETECT\LIBCBDETECT\LIBCBDETECT\X64\DEBUG\FILTER_CORNERS.OBJ
C:\HALACI\TESTPROJECTS\CALIBRATION\CBDETECT\LIBCBDETECT\LIBCBDETECT\X64\DEBUG\FILTER_BOARD.OBJ
C:\HALACI\TESTPROJECTS\CALIBRATION\CBDETECT\LIBCBDETECT\LIBCBDETECT\X64\DEBUG\CREATE_CORRELATION_PATCH.OBJ
C:\HALACI\TESTPROJECTS\CALIBRATION\CBDETECT\LIBCBDETECT\LIBCBDETECT\X64\DEBUG\BOARD_ENERGY.OBJ
C:\HALACI\TESTPROJECTS\CALIBRATION\CBDETECT\LIBCBDETECT\LIBCBDETECT\X64\DEBUG\BOARDS_FROM_CORNERS.OBJ
^C:\HALACI\TESTPROJECTS\CALIBRATION\CBDETECT\LIBCBDETECT\LIBCBDETECT-MASTER\SRC\LIBCBDETECT\BOARDS_FROM_CORNERS.CC|C:\HALACI\TESTPROJECTS\CALIBRATION\CBDETECT\LIBCBDETECT\LIBCBDETECT-MASTER\SRC\LIBCBDETECT\BOARD_ENERGY.CC|C:\HALACI\TESTPROJECTS\CALIBRATION\CBDETECT\LIBCBDETECT\LIBCBDETECT-MASTER\SRC\LIBCBDETECT\CREATE_CORRELATION_PATCH.CC|C:\HALACI\TESTPROJECTS\CALIBRATION\CBDETECT\LIBCBDETECT\LIBCBDETECT-MASTER\SRC\LIBCBDETECT\FILTER_BOARD.CC|C:\HALACI\TESTPROJECTS\CALIBRATION\CBDETECT\LIBCBDETECT\LIBCBDETECT-MASTER\SRC\LIBCBDETECT\FILTER_CORNERS.CC|C:\HALACI\TESTPROJECTS\CALIBRATION\CBDETECT\LIBCBDETECT\LIBCBDETECT-MASTER\SRC\LIBCBDETECT\FIND_CORNERS.CC|C:\HALACI\TESTPROJECTS\CALIBRATION\CBDETECT\LIBCBDETECT\LIBCBDETECT-MASTER\SRC\LIBCBDETECT\FIND_MODES_MEANSHIFT.CC|C:\HALACI\TESTPROJECTS\CALIBRATION\CBDETECT\LIBCBDETECT\LIBCBDETECT-MASTER\SRC\LIBCBDETECT\GET_IMAGE_PATCH.CC|C:\HALACI\TESTPROJECTS\CALIBRATION\CBDETECT\LIBCBDETECT\LIBCBDETECT-MASTER\SRC\LIBCBDETECT\GET_INIT_LOCATION.CC|C:\HALACI\TESTPROJECTS\CALIBRATION\CBDETECT\LIBCBDETECT\LIBCBDETECT-MASTER\SRC\LIBCBDETECT\GROW_BOARD.CC|C:\HALACI\TESTPROJECTS\CALIBRATION\CBDETECT\LIBCBDETECT\LIBCBDETECT-MASTER\SRC\LIBCBDETECT\IMAGE_NORMALIZATION_AND_GRADIENTS.CC|C:\HALACI\TESTPROJECTS\CALIBRATION\CBDETECT\LIBCBDETECT\LIBCBDETECT-MASTER\SRC\LIBCBDETECT\INIT_BOARD.CC|C:\HALACI\TESTPROJECTS\CALIBRATION\CBDETECT\LIBCBDETECT\LIBCBDETECT-MASTER\SRC\LIBCBDETECT\NON_MAXIMUM_SUPPRESSION.CC|C:\HALACI\TESTPROJECTS\CALIBRATION\CBDETECT\LIBCBDETECT\LIBCBDETECT-MASTER\SRC\LIBCBDETECT\PLOT_BOARDS.CC|C:\HALACI\TESTPROJECTS\CALIBRATION\CBDETECT\LIBCBDETECT\LIBCBDETECT-MASTER\SRC\LIBCBDETECT\PLOT_CORNERS.CC|C:\HALACI\TESTPROJECTS\CALIBRATION\CBDETECT\LIBCBDETECT\LIBCBDETECT-MASTER\SRC\LIBCBDETECT\POLYNOMIAL_FIT.CC|C:\HALACI\TESTPROJECTS\CALIBRATION\CBDETECT\LIBCBDETECT\LIBCBDETECT-MASTER\SRC\LIBCBDETECT\REFINE_CORNERS.CC|C:\HALACI\TESTPROJECTS\CALIBRATION\CBDETECT\LIBCBDETECT\LIBCBDETECT-MASTER\SRC\LIBCBDETECT\SCORE_CORNERS.CC|C:\HALACI\TESTPROJECTS\CALIBRATION\CBDETECT\LIBCBDETECT\LIBCBDETECT-MASTER\SRC\LIBCBDETECT\WEIGHT_MASK.CC|C:\HALACI\TESTPROJECTS\CALIBRATION\CBDETECT\LIBCBDETECT\LIBCBDETECT\FILEIO.CC|C:\HALACI\TESTPROJECTS\CALIBRATION\CBDETECT\LIBCBDETECT\LIBCBDETECT\MAIN.CPP
C:\HALACI\TESTPROJECTS\CALIBRATION\CBDETECT\LIBCBDETECT\LIBCBDETECT\X64\DEBUG\VC141.PDB
C:\HALACI\TESTPROJECTS\CALIBRATION\CBDETECT\LIBCBDETECT\LIBCBDETECT\X64\DEBUG\VC141.IDB
C:\HALACI\TESTPROJECTS\CALIBRATION\CBDETECT\LIBCBDETECT\LIBCBDETECT\X64\DEBUG\FILEIO.OBJ
C:\HALACI\TESTPROJECTS\CALIBRATION\CBDETECT\LIBCBDETECT\LIBCBDETECT\X64\DEBUG\WEIGHT_MASK.OBJ
C:\HALACI\TESTPROJECTS\CALIBRATION\CBDETECT\LIBCBDETECT\LIBCBDETECT\X64\DEBUG\SCORE_CORNERS.OBJ
C:\HALACI\TESTPROJECTS\CALIBRATION\CBDETECT\LIBCBDETECT\LIBCBDETECT\X64\DEBUG\REFINE_CORNERS.OBJ
C:\HALACI\TESTPROJECTS\CALIBRATION\CBDETECT\LIBCBDETECT\LIBCBDETECT\X64\DEBUG\POLYNOMIAL_FIT.OBJ
C:\HALACI\TESTPROJECTS\CALIBRATION\CBDETECT\LIBCBDETECT\LIBCBDETECT\X64\DEBUG\PLOT_CORNERS.OBJ
C:\HALACI\TESTPROJECTS\CALIBRATION\CBDETECT\LIBCBDETECT\LIBCBDETECT\X64\DEBUG\PLOT_BOARDS.OBJ
C:\HALACI\TESTPROJECTS\CALIBRATION\CBDETECT\LIBCBDETECT\LIBCBDETECT\X64\DEBUG\NON_MAXIMUM_SUPPRESSION.OBJ
C:\HALACI\TESTPROJECTS\CALIBRATION\CBDETECT\LIBCBDETECT\LIBCBDETECT\X64\DEBUG\INIT_BOARD.OBJ
C:\HALACI\TESTPROJECTS\CALIBRATION\CBDETECT\LIBCBDETECT\LIBCBDETECT\X64\DEBUG\IMAGE_NORMALIZATION_AND_GRADIENTS.OBJ
C:\HALACI\TESTPROJECTS\CALIBRATION\CBDETECT\LIBCBDETECT\LIBCBDETECT\X64\DEBUG\GROW_BOARD.OBJ
C:\HALACI\TESTPROJECTS\CALIBRATION\CBDETECT\LIBCBDETECT\LIBCBDETECT\X64\DEBUG\GET_INIT_LOCATION.OBJ
C:\HALACI\TESTPROJECTS\CALIBRATION\CBDETECT\LIBCBDETECT\LIBCBDETECT\X64\DEBUG\GET_IMAGE_PATCH.OBJ
C:\HALACI\TESTPROJECTS\CALIBRATION\CBDETECT\LIBCBDETECT\LIBCBDETECT\X64\DEBUG\FIND_MODES_MEANSHIFT.OBJ
C:\HALACI\TESTPROJECTS\CALIBRATION\CBDETECT\LIBCBDETECT\LIBCBDETECT\X64\DEBUG\FIND_CORNERS.OBJ
C:\HALACI\TESTPROJECTS\CALIBRATION\CBDETECT\LIBCBDETECT\LIBCBDETECT\X64\DEBUG\FILTER_CORNERS.OBJ
C:\HALACI\TESTPROJECTS\CALIBRATION\CBDETECT\LIBCBDETECT\LIBCBDETECT\X64\DEBUG\FILTER_BOARD.OBJ
C:\HALACI\TESTPROJECTS\CALIBRATION\CBDETECT\LIBCBDETECT\LIBCBDETECT\X64\DEBUG\CREATE_CORRELATION_PATCH.OBJ
C:\HALACI\TESTPROJECTS\CALIBRATION\CBDETECT\LIBCBDETECT\LIBCBDETECT\X64\DEBUG\BOARD_ENERGY.OBJ
C:\HALACI\TESTPROJECTS\CALIBRATION\CBDETECT\LIBCBDETECT\LIBCBDETECT\X64\DEBUG\BOARDS_FROM_CORNERS.OBJ
C:\HALACI\TESTPROJECTS\CALIBRATION\CBDETECT\LIBCBDETECT\LIBCBDETECT\X64\DEBUG\MAIN.OBJ
^C:\HALACI\TESTPROJECTS\CALIBRATION\CBDETECT\LIBCBDETECT\LIBCBDETECT-MASTER\SRC\LIBCBDETECT\BOARDS_FROM_CORNERS.CC|C:\HALACI\TESTPROJECTS\CALIBRATION\CBDETECT\LIBCBDETECT\LIBCBDETECT-MASTER\SRC\LIBCBDETECT\BOARD_ENERGY.CC|C:\HALACI\TESTPROJECTS\CALIBRATION\CBDETECT\LIBCBDETECT\LIBCBDETECT-MASTER\SRC\LIBCBDETECT\CREATE_CORRELATION_PATCH.CC|C:\HALACI\TESTPROJECTS\CALIBRATION\CBDETECT\LIBCBDETECT\LIBCBDETECT-MASTER\SRC\LIBCBDETECT\FILTER_BOARD.CC|C:\HALACI\TESTPROJECTS\CALIBRATION\CBDETECT\LIBCBDETECT\LIBCBDETECT-MASTER\SRC\LIBCBDETECT\FILTER_CORNERS.CC|C:\HALACI\TESTPROJECTS\CALIBRATION\CBDETECT\LIBCBDETECT\LIBCBDETECT-MASTER\SRC\LIBCBDETECT\FIND_CORNERS.CC|C:\HALACI\TESTPROJECTS\CALIBRATION\CBDETECT\LIBCBDETECT\LIBCBDETECT-MASTER\SRC\LIBCBDETECT\FIND_MODES_MEANSHIFT.CC|C:\HALACI\TESTPROJECTS\CALIBRATION\CBDETECT\LIBCBDETECT\LIBCBDETECT-MASTER\SRC\LIBCBDETECT\GET_IMAGE_PATCH.CC|C:\HALACI\TESTPROJECTS\CALIBRATION\CBDETECT\LIBCBDETECT\LIBCBDETECT-MASTER\SRC\LIBCBDETECT\GET_INIT_LOCATION.CC|C:\HALACI\TESTPROJECTS\CALIBRATION\CBDETECT\LIBCBDETECT\LIBCBDETECT-MASTER\SRC\LIBCBDETECT\GROW_BOARD.CC|C:\HALACI\TESTPROJECTS\CALIBRATION\CBDETECT\LIBCBDETECT\LIBCBDETECT-MASTER\SRC\LIBCBDETECT\IMAGE_NORMALIZATION_AND_GRADIENTS.CC|C:\HALACI\TESTPROJECTS\CALIBRATION\CBDETECT\LIBCBDETECT\LIBCBDETECT-MASTER\SRC\LIBCBDETECT\INIT_BOARD.CC|C:\HALACI\TESTPROJECTS\CALIBRATION\CBDETECT\LIBCBDETECT\LIBCBDETECT-MASTER\SRC\LIBCBDETECT\NON_MAXIMUM_SUPPRESSION.CC|C:\HALACI\TESTPROJECTS\CALIBRATION\CBDETECT\LIBCBDETECT\LIBCBDETECT-MASTER\SRC\LIBCBDETECT\PLOT_BOARDS.CC|C:\HALACI\TESTPROJECTS\CALIBRATION\CBDETECT\LIBCBDETECT\LIBCBDETECT-MASTER\SRC\LIBCBDETECT\PLOT_CORNERS.CC|C:\HALACI\TESTPROJECTS\CALIBRATION\CBDETECT\LIBCBDETECT\LIBCBDETECT-MASTER\SRC\LIBCBDETECT\POLYNOMIAL_FIT.CC|C:\HALACI\TESTPROJECTS\CALIBRATION\CBDETECT\LIBCBDETECT\LIBCBDETECT-MASTER\SRC\LIBCBDETECT\REFINE_CORNERS.CC|C:\HALACI\TESTPROJECTS\CALIBRATION\CBDETECT\LIBCBDETECT\LIBCBDETECT-MASTER\SRC\LIBCBDETECT\SCORE_CORNERS.CC|C:\HALACI\TESTPROJECTS\CALIBRATION\CBDETECT\LIBCBDETECT\LIBCBDETECT-MASTER\SRC\LIBCBDETECT\WEIGHT_MASK.CC|C:\HALACI\TESTPROJECTS\CALIBRATION\CBDETECT\LIBCBDETECT\LIBCBDETECT\FILEIO.CC|C:\HALACI\TESTPROJECTS\CALIBRATION\CBDETECT\LIBCBDETECT\LIBCBDETECT\MAIN.CPP|C:\HALACI\TESTPROJECTS\OPENCV_CONTRIB-MASTER\MODULES\ARUCO\SRC\APRILTAG_QUAD_THRESH.CPP|C:\HALACI\TESTPROJECTS\OPENCV_CONTRIB-MASTER\MODULES\ARUCO\SRC\ARUCO.CPP|C:\HALACI\TESTPROJECTS\OPENCV_CONTRIB-MASTER\MODULES\ARUCO\SRC\CHARUCO.CPP|C:\HALACI\TESTPROJECTS\OPENCV_CONTRIB-MASTER\MODULES\ARUCO\SRC\DICTIONARY.CPP|C:\HALACI\TESTPROJECTS\OPENCV_CONTRIB-MASTER\MODULES\ARUCO\SRC\ZMAXHEAP.CPP
C:\HALACI\TESTPROJECTS\CALIBRATION\CBDETECT\LIBCBDETECT\LIBCBDETECT\X64\DEBUG\VC141.PDB
C:\HALACI\TESTPROJECTS\CALIBRATION\CBDETECT\LIBCBDETECT\LIBCBDETECT\X64\DEBUG\VC141.IDB
C:\HALACI\TESTPROJECTS\CALIBRATION\CBDETECT\LIBCBDETECT\LIBCBDETECT\X64\DEBUG\PLOT_CORNERS.OBJ
C:\HALACI\TESTPROJECTS\CALIBRATION\CBDETECT\LIBCBDETECT\LIBCBDETECT\X64\DEBUG\PLOT_BOARDS.OBJ
C:\HALACI\TESTPROJECTS\CALIBRATION\CBDETECT\LIBCBDETECT\LIBCBDETECT\X64\DEBUG\NON_MAXIMUM_SUPPRESSION.OBJ
C:\HALACI\TESTPROJECTS\CALIBRATION\CBDETECT\LIBCBDETECT\LIBCBDETECT\X64\DEBUG\INIT_BOARD.OBJ
C:\HALACI\TESTPROJECTS\CALIBRATION\CBDETECT\LIBCBDETECT\LIBCBDETECT\X64\DEBUG\IMAGE_NORMALIZATION_AND_GRADIENTS.OBJ
C:\HALACI\TESTPROJECTS\CALIBRATION\CBDETECT\LIBCBDETECT\LIBCBDETECT\X64\DEBUG\GROW_BOARD.OBJ
C:\HALACI\TESTPROJECTS\CALIBRATION\CBDETECT\LIBCBDETECT\LIBCBDETECT\X64\DEBUG\GET_INIT_LOCATION.OBJ
C:\HALACI\TESTPROJECTS\CALIBRATION\CBDETECT\LIBCBDETECT\LIBCBDETECT\X64\DEBUG\GET_IMAGE_PATCH.OBJ
C:\HALACI\TESTPROJECTS\CALIBRATION\CBDETECT\LIBCBDETECT\LIBCBDETECT\X64\DEBUG\FIND_MODES_MEANSHIFT.OBJ
C:\HALACI\TESTPROJECTS\CALIBRATION\CBDETECT\LIBCBDETECT\LIBCBDETECT\X64\DEBUG\FIND_CORNERS.OBJ
C:\HALACI\TESTPROJECTS\CALIBRATION\CBDETECT\LIBCBDETECT\LIBCBDETECT\X64\DEBUG\FILTER_CORNERS.OBJ
C:\HALACI\TESTPROJECTS\CALIBRATION\CBDETECT\LIBCBDETECT\LIBCBDETECT\X64\DEBUG\FILTER_BOARD.OBJ
C:\HALACI\TESTPROJECTS\CALIBRATION\CBDETECT\LIBCBDETECT\LIBCBDETECT\X64\DEBUG\CREATE_CORRELATION_PATCH.OBJ
C:\HALACI\TESTPROJECTS\CALIBRATION\CBDETECT\LIBCBDETECT\LIBCBDETECT\X64\DEBUG\BOARD_ENERGY.OBJ
C:\HALACI\TESTPROJECTS\CALIBRATION\CBDETECT\LIBCBDETECT\LIBCBDETECT\X64\DEBUG\BOARDS_FROM_CORNERS.OBJ
C:\HALACI\TESTPROJECTS\CALIBRATION\CBDETECT\LIBCBDETECT\LIBCBDETECT\X64\DEBUG\ZMAXHEAP.OBJ
C:\HALACI\TESTPROJECTS\CALIBRATION\CBDETECT\LIBCBDETECT\LIBCBDETECT\X64\DEBUG\DICTIONARY.OBJ
C:\HALACI\TESTPROJECTS\CALIBRATION\CBDETECT\LIBCBDETECT\LIBCBDETECT\X64\DEBUG\CHARUCO.OBJ
C:\HALACI\TESTPROJECTS\CALIBRATION\CBDETECT\LIBCBDETECT\LIBCBDETECT\X64\DEBUG\ARUCO.OBJ
C:\HALACI\TESTPROJECTS\CALIBRATION\CBDETECT\LIBCBDETECT\LIBCBDETECT\X64\DEBUG\APRILTAG_QUAD_THRESH.OBJ
C:\HALACI\TESTPROJECTS\CALIBRATION\CBDETECT\LIBCBDETECT\LIBCBDETECT\X64\DEBUG\MAIN.OBJ
C:\HALACI\TESTPROJECTS\CALIBRATION\CBDETECT\LIBCBDETECT\LIBCBDETECT\X64\DEBUG\FILEIO.OBJ
C:\HALACI\TESTPROJECTS\CALIBRATION\CBDETECT\LIBCBDETECT\LIBCBDETECT\X64\DEBUG\WEIGHT_MASK.OBJ
C:\HALACI\TESTPROJECTS\CALIBRATION\CBDETECT\LIBCBDETECT\LIBCBDETECT\X64\DEBUG\SCORE_CORNERS.OBJ
C:\HALACI\TESTPROJECTS\CALIBRATION\CBDETECT\LIBCBDETECT\LIBCBDETECT\X64\DEBUG\REFINE_CORNERS.OBJ
C:\HALACI\TESTPROJECTS\CALIBRATION\CBDETECT\LIBCBDETECT\LIBCBDETECT\X64\DEBUG\POLYNOMIAL_FIT.OBJ
^C:\HALACI\TESTPROJECTS\OPENCV_CONTRIB-MASTER\MODULES\ARUCO\SRC\APRILTAG_QUAD_THRESH.CPP
C:\HALACI\TESTPROJECTS\CALIBRATION\CBDETECT\LIBCBDETECT\LIBCBDETECT\X64\DEBUG\VC141.PDB
^C:\HALACI\TESTPROJECTS\OPENCV_CONTRIB-MASTER\MODULES\ARUCO\SRC\ARUCO.CPP
C:\HALACI\TESTPROJECTS\CALIBRATION\CBDETECT\LIBCBDETECT\LIBCBDETECT\X64\DEBUG\VC141.PDB
^C:\HALACI\TESTPROJECTS\OPENCV_CONTRIB-MASTER\MODULES\ARUCO\SRC\CHARUCO.CPP
C:\HALACI\TESTPROJECTS\CALIBRATION\CBDETECT\LIBCBDETECT\LIBCBDETECT\X64\DEBUG\VC141.PDB
^C:\HALACI\TESTPROJECTS\OPENCV_CONTRIB-MASTER\MODULES\ARUCO\SRC\DICTIONARY.CPP
C:\HALACI\TESTPROJECTS\CALIBRATION\CBDETECT\LIBCBDETECT\LIBCBDETECT\X64\DEBUG\VC141.PDB
^C:\HALACI\TESTPROJECTS\OPENCV_CONTRIB-MASTER\MODULES\ARUCO\SRC\ZMAXHEAP.CPP
C:\HALACI\TESTPROJECTS\CALIBRATION\CBDETECT\LIBCBDETECT\LIBCBDETECT\X64\DEBUG\VC141.PDB
^C:\HALACI\TESTPROJECTS\CALIBRATION\CBDETECT\LIBCBDETECT\LIBCBDETECT-MASTER\SRC\LIBCBDETECT\BOARDS_FROM_CORNERS.CC
C:\HALACI\TESTPROJECTS\CALIBRATION\CBDETECT\LIBCBDETECT\LIBCBDETECT\X64\DEBUG\VC141.PDB
^C:\HALACI\TESTPROJECTS\CALIBRATION\CBDETECT\LIBCBDETECT\LIBCBDETECT-MASTER\SRC\LIBCBDETECT\BOARD_ENERGY.CC
C:\HALACI\TESTPROJECTS\CALIBRATION\CBDETECT\LIBCBDETECT\LIBCBDETECT\X64\DEBUG\VC141.PDB
^C:\HALACI\TESTPROJECTS\CALIBRATION\CBDETECT\LIBCBDETECT\LIBCBDETECT-MASTER\SRC\LIBCBDETECT\CREATE_CORRELATION_PATCH.CC
C:\HALACI\TESTPROJECTS\CALIBRATION\CBDETECT\LIBCBDETECT\LIBCBDETECT\X64\DEBUG\VC141.PDB
^C:\HALACI\TESTPROJECTS\CALIBRATION\CBDETECT\LIBCBDETECT\LIBCBDETECT-MASTER\SRC\LIBCBDETECT\FILTER_BOARD.CC
C:\HALACI\TESTPROJECTS\CALIBRATION\CBDETECT\LIBCBDETECT\LIBCBDETECT\X64\DEBUG\VC141.PDB
^C:\HALACI\TESTPROJECTS\CALIBRATION\CBDETECT\LIBCBDETECT\LIBCBDETECT-MASTER\SRC\LIBCBDETECT\FILTER_CORNERS.CC
C:\HALACI\TESTPROJECTS\CALIBRATION\CBDETECT\LIBCBDETECT\LIBCBDETECT\X64\DEBUG\VC141.PDB
^C:\HALACI\TESTPROJECTS\CALIBRATION\CBDETECT\LIBCBDETECT\LIBCBDETECT-MASTER\SRC\LIBCBDETECT\FIND_CORNERS.CC
C:\HALACI\TESTPROJECTS\CALIBRATION\CBDETECT\LIBCBDETECT\LIBCBDETECT\X64\DEBUG\VC141.PDB
^C:\HALACI\TESTPROJECTS\CALIBRATION\CBDETECT\LIBCBDETECT\LIBCBDETECT-MASTER\SRC\LIBCBDETECT\FIND_MODES_MEANSHIFT.CC
C:\HALACI\TESTPROJECTS\CALIBRATION\CBDETECT\LIBCBDETECT\LIBCBDETECT\X64\DEBUG\VC141.PDB
^C:\HALACI\TESTPROJECTS\CALIBRATION\CBDETECT\LIBCBDETECT\LIBCBDETECT-MASTER\SRC\LIBCBDETECT\GET_IMAGE_PATCH.CC
C:\HALACI\TESTPROJECTS\CALIBRATION\CBDETECT\LIBCBDETECT\LIBCBDETECT\X64\DEBUG\VC141.PDB
^C:\HALACI\TESTPROJECTS\CALIBRATION\CBDETECT\LIBCBDETECT\LIBCBDETECT-MASTER\SRC\LIBCBDETECT\GET_INIT_LOCATION.CC
C:\HALACI\TESTPROJECTS\CALIBRATION\CBDETECT\LIBCBDETECT\LIBCBDETECT\X64\DEBUG\VC141.PDB
^C:\HALACI\TESTPROJECTS\CALIBRATION\CBDETECT\LIBCBDETECT\LIBCBDETECT-MASTER\SRC\LIBCBDETECT\GROW_BOARD.CC
C:\HALACI\TESTPROJECTS\CALIBRATION\CBDETECT\LIBCBDETECT\LIBCBDETECT\X64\DEBUG\VC141.PDB
^C:\HALACI\TESTPROJECTS\CALIBRATION\CBDETECT\LIBCBDETECT\LIBCBDETECT-MASTER\SRC\LIBCBDETECT\IMAGE_NORMALIZATION_AND_GRADIENTS.CC
C:\HALACI\TESTPROJECTS\CALIBRATION\CBDETECT\LIBCBDETECT\LIBCBDETECT\X64\DEBUG\VC141.PDB
^C:\HALACI\TESTPROJECTS\CALIBRATION\CBDETECT\LIBCBDETECT\LIBCBDETECT-MASTER\SRC\LIBCBDETECT\INIT_BOARD.CC
C:\HALACI\TESTPROJECTS\CALIBRATION\CBDETECT\LIBCBDETECT\LIBCBDETECT\X64\DEBUG\VC141.PDB
^C:\HALACI\TESTPROJECTS\CALIBRATION\CBDETECT\LIBCBDETECT\LIBCBDETECT-MASTER\SRC\LIBCBDETECT\NON_MAXIMUM_SUPPRESSION.CC
C:\HALACI\TESTPROJECTS\CALIBRATION\CBDETECT\LIBCBDETECT\LIBCBDETECT\X64\DEBUG\VC141.PDB
^C:\HALACI\TESTPROJECTS\CALIBRATION\CBDETECT\LIBCBDETECT\LIBCBDETECT-MASTER\SRC\LIBCBDETECT\PLOT_BOARDS.CC
C:\HALACI\TESTPROJECTS\CALIBRATION\CBDETECT\LIBCBDETECT\LIBCBDETECT\X64\DEBUG\VC141.PDB
^C:\HALACI\TESTPROJECTS\CALIBRATION\CBDETECT\LIBCBDETECT\LIBCBDETECT-MASTER\SRC\LIBCBDETECT\PLOT_CORNERS.CC
C:\HALACI\TESTPROJECTS\CALIBRATION\CBDETECT\LIBCBDETECT\LIBCBDETECT\X64\DEBUG\VC141.PDB
^C:\HALACI\TESTPROJECTS\CALIBRATION\CBDETECT\LIBCBDETECT\LIBCBDETECT-MASTER\SRC\LIBCBDETECT\POLYNOMIAL_FIT.CC
C:\HALACI\TESTPROJECTS\CALIBRATION\CBDETECT\LIBCBDETECT\LIBCBDETECT\X64\DEBUG\VC141.PDB
^C:\HALACI\TESTPROJECTS\CALIBRATION\CBDETECT\LIBCBDETECT\LIBCBDETECT-MASTER\SRC\LIBCBDETECT\REFINE_CORNERS.CC
C:\HALACI\TESTPROJECTS\CALIBRATION\CBDETECT\LIBCBDETECT\LIBCBDETECT\X64\DEBUG\VC141.PDB
^C:\HALACI\TESTPROJECTS\CALIBRATION\CBDETECT\LIBCBDETECT\LIBCBDETECT-MASTER\SRC\LIBCBDETECT\SCORE_CORNERS.CC
C:\HALACI\TESTPROJECTS\CALIBRATION\CBDETECT\LIBCBDETECT\LIBCBDETECT\X64\DEBUG\VC141.PDB
^C:\HALACI\TESTPROJECTS\CALIBRATION\CBDETECT\LIBCBDETECT\LIBCBDETECT-MASTER\SRC\LIBCBDETECT\WEIGHT_MASK.CC
C:\HALACI\TESTPROJECTS\CALIBRATION\CBDETECT\LIBCBDETECT\LIBCBDETECT\X64\DEBUG\VC141.PDB
^C:\HALACI\TESTPROJECTS\CALIBRATION\CBDETECT\LIBCBDETECT\LIBCBDETECT\FILEIO.CC
C:\HALACI\TESTPROJECTS\CALIBRATION\CBDETECT\LIBCBDETECT\LIBCBDETECT\X64\DEBUG\VC141.PDB
^C:\HALACI\TESTPROJECTS\CALIBRATION\CBDETECT\LIBCBDETECT\LIBCBDETECT\MAIN.CPP
C:\HALACI\TESTPROJECTS\CALIBRATION\CBDETECT\LIBCBDETECT\LIBCBDETECT\X64\DEBUG\VC141.PDB
C:\HALACI\TESTPROJECTS\CALIBRATION\CBDETECT\LIBCBDETECT\LIBCBDETECT\X64\DEBUG\VC141.IDB
C:\HALACI\TESTPROJECTS\CALIBRATION\CBDETECT\LIBCBDETECT\LIBCBDETECT\X64\DEBUG\MAIN.OBJ
